{
  "apiTestVy-login": "https://api-dagk-webnc.herokuapp.com/api/user/authenticate",
  "apiStagging-login": "http://localhost:5100/api/auth/login",
  "apiStagging-baseURL": "http://localhost:5100/api"
}
